strict graph G{
0 [label="SEQ"];
0 -- 1;
1 [label="LABEL\nL_QS::Print"];
0 -- 2;
2 [label="SEQ"];
2 -- 3;
3 [label="SEQ"];
3 -- 4;
4 [label="MOVE"];
4 -- 5;
5 [label="MEM"];
5 -- 6;
6 [label="+"];
6 -- 7;
7 [label="TEMP\nT_FP"];
6 -- 8;
8 [label="CONST\n8"];
4 -- 9;
9 [label="CONST\n0"];
3 -- 10;
10 [label="SEQ"];
10 -- 11;
11 [label="LABEL\nL_WHILELOOP_4"];
10 -- 12;
12 [label="SEQ"];
12 -- 13;
13 [label="CJUMP\nLT"];
13 -- 14;
14 [label="MEM"];
14 -- 15;
15 [label="+"];
15 -- 16;
16 [label="TEMP\nT_FP"];
15 -- 17;
17 [label="CONST\n8"];
13 -- 18;
18 [label="MEM"];
18 -- 19;
19 [label="+"];
19 -- 20;
20 [label="TEMP\nT_THIS"];
19 -- 21;
21 [label="CONST\n4"];
13 -- 22;
22 [label="iftrue\nL_WHILEBODY_4"];
13 -- 23;
23 [label="iffalse\nL_WHILEDONE_4"];
12 -- 24;
24 [label="SEQ"];
24 -- 25;
25 [label="LABEL\nL_WHILEBODY_4"];
24 -- 26;
26 [label="SEQ"];
26 -- 27;
27 [label="SEQ"];
27 -- 28;
28 [label="EXP"];
28 -- 29;
29 [label="CALL"];
29 -- 30;
30 [label="NAME\nL_print"];
29 -- 31;
31 [label="MEM"];
31 -- 32;
32 [label="+"];
32 -- 33;
33 [label="MEM"];
33 -- 34;
34 [label="TEMP\nT_THIS"];
32 -- 35;
35 [label="*"];
35 -- 36;
36 [label="+"];
36 -- 37;
37 [label="MEM"];
37 -- 38;
38 [label="+"];
38 -- 39;
39 [label="TEMP\nT_FP"];
38 -- 40;
40 [label="CONST\n8"];
36 -- 41;
41 [label="CONST\n1"];
35 -- 42;
42 [label="CONST\n4"];
27 -- 43;
43 [label="MOVE"];
43 -- 44;
44 [label="MEM"];
44 -- 45;
45 [label="+"];
45 -- 46;
46 [label="TEMP\nT_FP"];
45 -- 47;
47 [label="CONST\n8"];
43 -- 48;
48 [label="+"];
48 -- 49;
49 [label="MEM"];
49 -- 50;
50 [label="+"];
50 -- 51;
51 [label="TEMP\nT_FP"];
50 -- 52;
52 [label="CONST\n8"];
48 -- 53;
53 [label="CONST\n1"];
26 -- 54;
54 [label="SEQ"];
54 -- 55;
55 [label="JUMP\nL_WHILELOOP_4"];
54 -- 56;
56 [label="LABEL\nL_WHILEDONE_4"];
2 -- 57;
57 [label="MOVE"];
57 -- 58;
58 [label="CONST\n0"];
57 -- 59;
59 [label="TEMP\nT_RET"];
}