strict graph G{
0 [label="SEQ"];
0 -- 1;
1 [label="LABEL\nL_MyVisitor::visit"];
0 -- 2;
2 [label="SEQ"];
2 -- 3;
3 [label="SEQ"];
3 -- 4;
4 [label="SEQ"];
4 -- 5;
5 [label="CJUMP\nLT"];
5 -- 6;
6 [label="CALL"];
6 -- 7;
7 [label="NAME\nL_Tree::GetHas_Right"];
6 -- 8;
8 [label="MEM"];
8 -- 9;
9 [label="+"];
9 -- 10;
10 [label="TEMP\nT_FP"];
9 -- 11;
11 [label="CONST\n8"];
5 -- 12;
12 [label="CONST\n0"];
5 -- 13;
13 [label="iftrue\nL_IFTRUE_24"];
5 -- 14;
14 [label="iffalse\nL_IFFALSE_24"];
4 -- 15;
15 [label="SEQ"];
15 -- 16;
16 [label="LABEL\nL_IFTRUE_24"];
15 -- 17;
17 [label="SEQ"];
17 -- 18;
18 [label="SEQ"];
18 -- 19;
19 [label="MOVE"];
19 -- 20;
20 [label="MEM"];
20 -- 21;
21 [label="+"];
21 -- 22;
22 [label="TEMP\nT_THIS"];
21 -- 23;
23 [label="CONST\n4"];
19 -- 24;
24 [label="CALL"];
24 -- 25;
25 [label="NAME\nL_Tree::GetRight"];
24 -- 26;
26 [label="MEM"];
26 -- 27;
27 [label="+"];
27 -- 28;
28 [label="TEMP\nT_FP"];
27 -- 29;
29 [label="CONST\n8"];
18 -- 30;
30 [label="MOVE"];
30 -- 31;
31 [label="MEM"];
31 -- 32;
32 [label="+"];
32 -- 33;
33 [label="TEMP\nT_FP"];
32 -- 34;
34 [label="CONST\n12"];
30 -- 35;
35 [label="CALL"];
35 -- 36;
36 [label="NAME\nL_MyVisitor::accept"];
35 -- 37;
37 [label="MEM"];
37 -- 38;
38 [label="+"];
38 -- 39;
39 [label="TEMP\nT_THIS"];
38 -- 40;
40 [label="CONST\n4"];
35 -- 41;
41 [label="TEMP\nT_THIS"];
17 -- 42;
42 [label="SEQ"];
42 -- 43;
43 [label="JUMP\nL_IFEXIT_24"];
42 -- 44;
44 [label="SEQ"];
44 -- 45;
45 [label="LABEL\nL_IFFALSE_24"];
44 -- 46;
46 [label="SEQ"];
46 -- 47;
47 [label="MOVE"];
47 -- 48;
48 [label="MEM"];
48 -- 49;
49 [label="+"];
49 -- 50;
50 [label="TEMP\nT_FP"];
49 -- 51;
51 [label="CONST\n12"];
47 -- 52;
52 [label="CONST\n0"];
46 -- 53;
53 [label="LABEL\nL_IFEXIT_24"];
3 -- 54;
54 [label="SEQ"];
54 -- 55;
55 [label="EXP"];
55 -- 56;
56 [label="CALL"];
56 -- 57;
57 [label="NAME\nL_print"];
56 -- 58;
58 [label="CALL"];
58 -- 59;
59 [label="NAME\nL_Tree::GetKey"];
58 -- 60;
60 [label="MEM"];
60 -- 61;
61 [label="+"];
61 -- 62;
62 [label="TEMP\nT_FP"];
61 -- 63;
63 [label="CONST\n8"];
54 -- 64;
64 [label="SEQ"];
64 -- 65;
65 [label="CJUMP\nLT"];
65 -- 66;
66 [label="CALL"];
66 -- 67;
67 [label="NAME\nL_Tree::GetHas_Left"];
66 -- 68;
68 [label="MEM"];
68 -- 69;
69 [label="+"];
69 -- 70;
70 [label="TEMP\nT_FP"];
69 -- 71;
71 [label="CONST\n8"];
65 -- 72;
72 [label="CONST\n0"];
65 -- 73;
73 [label="iftrue\nL_IFTRUE_23"];
65 -- 74;
74 [label="iffalse\nL_IFFALSE_23"];
64 -- 75;
75 [label="SEQ"];
75 -- 76;
76 [label="LABEL\nL_IFTRUE_23"];
75 -- 77;
77 [label="SEQ"];
77 -- 78;
78 [label="SEQ"];
78 -- 79;
79 [label="MOVE"];
79 -- 80;
80 [label="MEM"];
80 -- 81;
81 [label="TEMP\nT_THIS"];
79 -- 82;
82 [label="CALL"];
82 -- 83;
83 [label="NAME\nL_Tree::GetLeft"];
82 -- 84;
84 [label="MEM"];
84 -- 85;
85 [label="+"];
85 -- 86;
86 [label="TEMP\nT_FP"];
85 -- 87;
87 [label="CONST\n8"];
78 -- 88;
88 [label="MOVE"];
88 -- 89;
89 [label="MEM"];
89 -- 90;
90 [label="+"];
90 -- 91;
91 [label="TEMP\nT_FP"];
90 -- 92;
92 [label="CONST\n12"];
88 -- 93;
93 [label="CALL"];
93 -- 94;
94 [label="NAME\nL_MyVisitor::accept"];
93 -- 95;
95 [label="MEM"];
95 -- 96;
96 [label="TEMP\nT_THIS"];
93 -- 97;
97 [label="TEMP\nT_THIS"];
77 -- 98;
98 [label="SEQ"];
98 -- 99;
99 [label="JUMP\nL_IFEXIT_23"];
98 -- 100;
100 [label="SEQ"];
100 -- 101;
101 [label="LABEL\nL_IFFALSE_23"];
100 -- 102;
102 [label="SEQ"];
102 -- 103;
103 [label="MOVE"];
103 -- 104;
104 [label="MEM"];
104 -- 105;
105 [label="+"];
105 -- 106;
106 [label="TEMP\nT_FP"];
105 -- 107;
107 [label="CONST\n12"];
103 -- 108;
108 [label="CONST\n0"];
102 -- 109;
109 [label="LABEL\nL_IFEXIT_23"];
2 -- 110;
110 [label="MOVE"];
110 -- 111;
111 [label="CONST\n0"];
110 -- 112;
112 [label="TEMP\nT_RET"];
}