strict graph G{
0 [label="SEQ"];
0 -- 1;
1 [label="LABEL\nL_Tree::SetHas_Left"];
0 -- 2;
2 [label="SEQ"];
2 -- 3;
3 [label="MOVE"];
3 -- 4;
4 [label="MEM"];
4 -- 5;
5 [label="+"];
5 -- 6;
6 [label="TEMP\nT_THIS"];
5 -- 7;
7 [label="CONST\n12"];
3 -- 8;
8 [label="MEM"];
8 -- 9;
9 [label="+"];
9 -- 10;
10 [label="TEMP\nT_FP"];
9 -- 11;
11 [label="CONST\n24"];
2 -- 12;
12 [label="MOVE"];
12 -- 13;
13 [label="CONST\n1"];
12 -- 14;
14 [label="TEMP\nT_RET"];
}