strict graph G{
0 [label="SEQ"];
0 -- 1;
1 [label="LABEL\nL_Tree::RemoveLeft"];
0 -- 2;
2 [label="SEQ"];
2 -- 3;
3 [label="SEQ"];
3 -- 4;
4 [label="SEQ"];
4 -- 5;
5 [label="LABEL\nL_WHILELOOP_4"];
4 -- 6;
6 [label="SEQ"];
6 -- 7;
7 [label="CJUMP\nLT"];
7 -- 8;
8 [label="CALL"];
8 -- 9;
9 [label="NAME\nL_Tree::GetHas_Left"];
8 -- 10;
10 [label="MEM"];
10 -- 11;
11 [label="+"];
11 -- 12;
12 [label="TEMP\nT_FP"];
11 -- 13;
13 [label="CONST\n28"];
7 -- 14;
14 [label="CONST\n0"];
7 -- 15;
15 [label="iftrue\nL_WHILEBODY_4"];
7 -- 16;
16 [label="iffalse\nL_WHILEDONE_4"];
6 -- 17;
17 [label="SEQ"];
17 -- 18;
18 [label="LABEL\nL_WHILEBODY_4"];
17 -- 19;
19 [label="SEQ"];
19 -- 20;
20 [label="SEQ"];
20 -- 21;
21 [label="MOVE"];
21 -- 22;
22 [label="MEM"];
22 -- 23;
23 [label="+"];
23 -- 24;
24 [label="TEMP\nT_FP"];
23 -- 25;
25 [label="CONST\n32"];
21 -- 26;
26 [label="CALL"];
26 -- 27;
27 [label="NAME\nL_Tree::SetKey"];
26 -- 28;
28 [label="MEM"];
28 -- 29;
29 [label="+"];
29 -- 30;
30 [label="TEMP\nT_FP"];
29 -- 31;
31 [label="CONST\n28"];
26 -- 32;
32 [label="CALL"];
32 -- 33;
33 [label="NAME\nL_Tree::GetKey"];
32 -- 34;
34 [label="CALL"];
34 -- 35;
35 [label="NAME\nL_Tree::GetLeft"];
34 -- 36;
36 [label="MEM"];
36 -- 37;
37 [label="+"];
37 -- 38;
38 [label="TEMP\nT_FP"];
37 -- 39;
39 [label="CONST\n28"];
20 -- 40;
40 [label="SEQ"];
40 -- 41;
41 [label="MOVE"];
41 -- 42;
42 [label="MEM"];
42 -- 43;
43 [label="+"];
43 -- 44;
44 [label="TEMP\nT_FP"];
43 -- 45;
45 [label="CONST\n24"];
41 -- 46;
46 [label="MEM"];
46 -- 47;
47 [label="+"];
47 -- 48;
48 [label="TEMP\nT_FP"];
47 -- 49;
49 [label="CONST\n28"];
40 -- 50;
50 [label="MOVE"];
50 -- 51;
51 [label="MEM"];
51 -- 52;
52 [label="+"];
52 -- 53;
53 [label="TEMP\nT_FP"];
52 -- 54;
54 [label="CONST\n28"];
50 -- 55;
55 [label="CALL"];
55 -- 56;
56 [label="NAME\nL_Tree::GetLeft"];
55 -- 57;
57 [label="MEM"];
57 -- 58;
58 [label="+"];
58 -- 59;
59 [label="TEMP\nT_FP"];
58 -- 60;
60 [label="CONST\n28"];
19 -- 61;
61 [label="SEQ"];
61 -- 62;
62 [label="JUMP\nL_WHILELOOP_4"];
61 -- 63;
63 [label="LABEL\nL_WHILEDONE_4"];
3 -- 64;
64 [label="SEQ"];
64 -- 65;
65 [label="MOVE"];
65 -- 66;
66 [label="MEM"];
66 -- 67;
67 [label="+"];
67 -- 68;
68 [label="TEMP\nT_FP"];
67 -- 69;
69 [label="CONST\n32"];
65 -- 70;
70 [label="CALL"];
70 -- 71;
71 [label="NAME\nL_Tree::SetLeft"];
70 -- 72;
72 [label="MEM"];
72 -- 73;
73 [label="+"];
73 -- 74;
74 [label="TEMP\nT_FP"];
73 -- 75;
75 [label="CONST\n24"];
70 -- 76;
76 [label="MEM"];
76 -- 77;
77 [label="+"];
77 -- 78;
78 [label="TEMP\nT_THIS"];
77 -- 79;
79 [label="CONST\n20"];
64 -- 80;
80 [label="MOVE"];
80 -- 81;
81 [label="MEM"];
81 -- 82;
82 [label="+"];
82 -- 83;
83 [label="TEMP\nT_FP"];
82 -- 84;
84 [label="CONST\n32"];
80 -- 85;
85 [label="CALL"];
85 -- 86;
86 [label="NAME\nL_Tree::SetHas_Left"];
85 -- 87;
87 [label="MEM"];
87 -- 88;
88 [label="+"];
88 -- 89;
89 [label="TEMP\nT_FP"];
88 -- 90;
90 [label="CONST\n24"];
85 -- 91;
91 [label="CONST\n0"];
2 -- 92;
92 [label="MOVE"];
92 -- 93;
93 [label="CONST\n1"];
92 -- 94;
94 [label="TEMP\nT_RET"];
}