strict graph G{
0 [label="SEQ"];
0 -- 1;
1 [label="LABEL\nL_BS::Print"];
0 -- 2;
2 [label="SEQ"];
2 -- 3;
3 [label="SEQ"];
3 -- 4;
4 [label="MOVE"];
4 -- 5;
5 [label="MEM"];
5 -- 6;
6 [label="+"];
6 -- 7;
7 [label="TEMP\nT_FP"];
6 -- 8;
8 [label="CONST\n8"];
4 -- 9;
9 [label="CONST\n1"];
3 -- 10;
10 [label="SEQ"];
10 -- 11;
11 [label="SEQ"];
11 -- 12;
12 [label="LABEL\nL_WHILELOOP_3"];
11 -- 13;
13 [label="SEQ"];
13 -- 14;
14 [label="CJUMP\nLT"];
14 -- 15;
15 [label="MEM"];
15 -- 16;
16 [label="+"];
16 -- 17;
17 [label="TEMP\nT_FP"];
16 -- 18;
18 [label="CONST\n8"];
14 -- 19;
19 [label="MEM"];
19 -- 20;
20 [label="+"];
20 -- 21;
21 [label="TEMP\nT_THIS"];
20 -- 22;
22 [label="CONST\n4"];
14 -- 23;
23 [label="iftrue\nL_WHILEBODY_3"];
14 -- 24;
24 [label="iffalse\nL_WHILEDONE_3"];
13 -- 25;
25 [label="SEQ"];
25 -- 26;
26 [label="LABEL\nL_WHILEBODY_3"];
25 -- 27;
27 [label="SEQ"];
27 -- 28;
28 [label="SEQ"];
28 -- 29;
29 [label="EXP"];
29 -- 30;
30 [label="CALL"];
30 -- 31;
31 [label="NAME\nL_print"];
30 -- 32;
32 [label="MEM"];
32 -- 33;
33 [label="+"];
33 -- 34;
34 [label="MEM"];
34 -- 35;
35 [label="TEMP\nT_THIS"];
33 -- 36;
36 [label="*"];
36 -- 37;
37 [label="+"];
37 -- 38;
38 [label="MEM"];
38 -- 39;
39 [label="+"];
39 -- 40;
40 [label="TEMP\nT_FP"];
39 -- 41;
41 [label="CONST\n8"];
37 -- 42;
42 [label="CONST\n1"];
36 -- 43;
43 [label="CONST\n4"];
28 -- 44;
44 [label="MOVE"];
44 -- 45;
45 [label="MEM"];
45 -- 46;
46 [label="+"];
46 -- 47;
47 [label="TEMP\nT_FP"];
46 -- 48;
48 [label="CONST\n8"];
44 -- 49;
49 [label="+"];
49 -- 50;
50 [label="MEM"];
50 -- 51;
51 [label="+"];
51 -- 52;
52 [label="TEMP\nT_FP"];
51 -- 53;
53 [label="CONST\n8"];
49 -- 54;
54 [label="CONST\n1"];
27 -- 55;
55 [label="SEQ"];
55 -- 56;
56 [label="JUMP\nL_WHILELOOP_3"];
55 -- 57;
57 [label="LABEL\nL_WHILEDONE_3"];
10 -- 58;
58 [label="EXP"];
58 -- 59;
59 [label="CALL"];
59 -- 60;
60 [label="NAME\nL_print"];
59 -- 61;
61 [label="CONST\n99999"];
2 -- 62;
62 [label="MOVE"];
62 -- 63;
63 [label="CONST\n0"];
62 -- 64;
64 [label="TEMP\nT_RET"];
}