strict graph G{
0 [label="SEQ"];
0 -- 1;
1 [label="LABEL\nL_List::Init"];
0 -- 2;
2 [label="SEQ"];
2 -- 3;
3 [label="MOVE"];
3 -- 4;
4 [label="MEM"];
4 -- 5;
5 [label="+"];
5 -- 6;
6 [label="TEMP\nT_THIS"];
5 -- 7;
7 [label="CONST\n8"];
3 -- 8;
8 [label="CONST\n1"];
2 -- 9;
9 [label="MOVE"];
9 -- 10;
10 [label="CONST\n1"];
9 -- 11;
11 [label="TEMP\nT_RET"];
}