strict graph G{
0 [label="SEQ"];
0 -- 1;
1 [label="LABEL\nL_BBS::Start"];
0 -- 2;
2 [label="SEQ"];
2 -- 3;
3 [label="SEQ"];
3 -- 4;
4 [label="MOVE"];
4 -- 5;
5 [label="MEM"];
5 -- 6;
6 [label="+"];
6 -- 7;
7 [label="TEMP\nT_FP"];
6 -- 8;
8 [label="CONST\n12"];
4 -- 9;
9 [label="CALL"];
9 -- 10;
10 [label="NAME\nL_BBS::Init"];
9 -- 11;
11 [label="TEMP\nT_THIS"];
9 -- 12;
12 [label="MEM"];
12 -- 13;
13 [label="+"];
13 -- 14;
14 [label="TEMP\nT_FP"];
13 -- 15;
15 [label="CONST\n8"];
3 -- 16;
16 [label="SEQ"];
16 -- 17;
17 [label="MOVE"];
17 -- 18;
18 [label="MEM"];
18 -- 19;
19 [label="+"];
19 -- 20;
20 [label="TEMP\nT_FP"];
19 -- 21;
21 [label="CONST\n12"];
17 -- 22;
22 [label="CALL"];
22 -- 23;
23 [label="NAME\nL_BBS::Print"];
22 -- 24;
24 [label="TEMP\nT_THIS"];
16 -- 25;
25 [label="SEQ"];
25 -- 26;
26 [label="EXP"];
26 -- 27;
27 [label="CALL"];
27 -- 28;
28 [label="NAME\nL_print"];
27 -- 29;
29 [label="CONST\n99999"];
25 -- 30;
30 [label="SEQ"];
30 -- 31;
31 [label="MOVE"];
31 -- 32;
32 [label="MEM"];
32 -- 33;
33 [label="+"];
33 -- 34;
34 [label="TEMP\nT_FP"];
33 -- 35;
35 [label="CONST\n12"];
31 -- 36;
36 [label="CALL"];
36 -- 37;
37 [label="NAME\nL_BBS::Sort"];
36 -- 38;
38 [label="TEMP\nT_THIS"];
30 -- 39;
39 [label="MOVE"];
39 -- 40;
40 [label="MEM"];
40 -- 41;
41 [label="+"];
41 -- 42;
42 [label="TEMP\nT_FP"];
41 -- 43;
43 [label="CONST\n12"];
39 -- 44;
44 [label="CALL"];
44 -- 45;
45 [label="NAME\nL_BBS::Print"];
44 -- 46;
46 [label="TEMP\nT_THIS"];
2 -- 47;
47 [label="MOVE"];
47 -- 48;
48 [label="CONST\n0"];
47 -- 49;
49 [label="TEMP\nT_RET"];
}