strict graph G{
0 [label="SEQ"];
0 -- 1;
1 [label="LABEL\nL_BinaryTree::main"];
0 -- 2;
2 [label="EXP"];
2 -- 3;
3 [label="CALL"];
3 -- 4;
4 [label="NAME\nL_print"];
3 -- 5;
5 [label="CALL"];
5 -- 6;
6 [label="NAME\nL_BT::Start"];
5 -- 7;
7 [label="CALL"];
7 -- 8;
8 [label="NAME\nL_malloc"];
7 -- 9;
9 [label="*"];
9 -- 10;
10 [label="CONST\n0"];
9 -- 11;
11 [label="CONST\n4"];
}