strict graph G{
0 [label="SEQ"];
0 -- 1;
1 [label="LABEL\nL_Tree::Remove"];
0 -- 2;
2 [label="SEQ"];
2 -- 3;
3 [label="SEQ"];
3 -- 4;
4 [label="CJUMP\nLT"];
4 -- 5;
5 [label="CALL"];
5 -- 6;
6 [label="NAME\nL_Tree::GetHas_Left"];
5 -- 7;
7 [label="MEM"];
7 -- 8;
8 [label="+"];
8 -- 9;
9 [label="TEMP\nT_FP"];
8 -- 10;
10 [label="CONST\n28"];
4 -- 11;
11 [label="CONST\n0"];
4 -- 12;
12 [label="iftrue\nL_IFTRUE_14"];
4 -- 13;
13 [label="iffalse\nL_IFFALSE_14"];
3 -- 14;
14 [label="SEQ"];
14 -- 15;
15 [label="LABEL\nL_IFTRUE_14"];
14 -- 16;
16 [label="SEQ"];
16 -- 17;
17 [label="MOVE"];
17 -- 18;
18 [label="MEM"];
18 -- 19;
19 [label="+"];
19 -- 20;
20 [label="TEMP\nT_FP"];
19 -- 21;
21 [label="CONST\n32"];
17 -- 22;
22 [label="CALL"];
22 -- 23;
23 [label="NAME\nL_Tree::RemoveLeft"];
22 -- 24;
24 [label="TEMP\nT_THIS"];
22 -- 25;
25 [label="MEM"];
25 -- 26;
26 [label="+"];
26 -- 27;
27 [label="TEMP\nT_FP"];
26 -- 28;
28 [label="CONST\n24"];
22 -- 29;
29 [label="MEM"];
29 -- 30;
30 [label="+"];
30 -- 31;
31 [label="TEMP\nT_FP"];
30 -- 32;
32 [label="CONST\n28"];
16 -- 33;
33 [label="SEQ"];
33 -- 34;
34 [label="JUMP\nL_IFEXIT_14"];
33 -- 35;
35 [label="SEQ"];
35 -- 36;
36 [label="LABEL\nL_IFFALSE_14"];
35 -- 37;
37 [label="SEQ"];
37 -- 38;
38 [label="SEQ"];
38 -- 39;
39 [label="CJUMP\nLT"];
39 -- 40;
40 [label="CALL"];
40 -- 41;
41 [label="NAME\nL_Tree::GetHas_Right"];
40 -- 42;
42 [label="MEM"];
42 -- 43;
43 [label="+"];
43 -- 44;
44 [label="TEMP\nT_FP"];
43 -- 45;
45 [label="CONST\n28"];
39 -- 46;
46 [label="CONST\n0"];
39 -- 47;
47 [label="iftrue\nL_IFTRUE_13"];
39 -- 48;
48 [label="iffalse\nL_IFFALSE_13"];
38 -- 49;
49 [label="SEQ"];
49 -- 50;
50 [label="LABEL\nL_IFTRUE_13"];
49 -- 51;
51 [label="SEQ"];
51 -- 52;
52 [label="MOVE"];
52 -- 53;
53 [label="MEM"];
53 -- 54;
54 [label="+"];
54 -- 55;
55 [label="TEMP\nT_FP"];
54 -- 56;
56 [label="CONST\n32"];
52 -- 57;
57 [label="CALL"];
57 -- 58;
58 [label="NAME\nL_Tree::RemoveRight"];
57 -- 59;
59 [label="TEMP\nT_THIS"];
57 -- 60;
60 [label="MEM"];
60 -- 61;
61 [label="+"];
61 -- 62;
62 [label="TEMP\nT_FP"];
61 -- 63;
63 [label="CONST\n24"];
57 -- 64;
64 [label="MEM"];
64 -- 65;
65 [label="+"];
65 -- 66;
66 [label="TEMP\nT_FP"];
65 -- 67;
67 [label="CONST\n28"];
51 -- 68;
68 [label="SEQ"];
68 -- 69;
69 [label="JUMP\nL_IFEXIT_13"];
68 -- 70;
70 [label="SEQ"];
70 -- 71;
71 [label="LABEL\nL_IFFALSE_13"];
70 -- 72;
72 [label="SEQ"];
72 -- 73;
73 [label="SEQ"];
73 -- 74;
74 [label="MOVE"];
74 -- 75;
75 [label="MEM"];
75 -- 76;
76 [label="+"];
76 -- 77;
77 [label="TEMP\nT_FP"];
76 -- 78;
78 [label="CONST\n36"];
74 -- 79;
79 [label="CALL"];
79 -- 80;
80 [label="NAME\nL_Tree::GetKey"];
79 -- 81;
81 [label="MEM"];
81 -- 82;
82 [label="+"];
82 -- 83;
83 [label="TEMP\nT_FP"];
82 -- 84;
84 [label="CONST\n28"];
73 -- 85;
85 [label="SEQ"];
85 -- 86;
86 [label="MOVE"];
86 -- 87;
87 [label="MEM"];
87 -- 88;
88 [label="+"];
88 -- 89;
89 [label="TEMP\nT_FP"];
88 -- 90;
90 [label="CONST\n40"];
86 -- 91;
91 [label="CALL"];
91 -- 92;
92 [label="NAME\nL_Tree::GetKey"];
91 -- 93;
93 [label="CALL"];
93 -- 94;
94 [label="NAME\nL_Tree::GetLeft"];
93 -- 95;
95 [label="MEM"];
95 -- 96;
96 [label="+"];
96 -- 97;
97 [label="TEMP\nT_FP"];
96 -- 98;
98 [label="CONST\n24"];
85 -- 99;
99 [label="SEQ"];
99 -- 100;
100 [label="CJUMP\nLT"];
100 -- 101;
101 [label="CALL"];
101 -- 102;
102 [label="NAME\nL_Tree::Compare"];
101 -- 103;
103 [label="TEMP\nT_THIS"];
101 -- 104;
104 [label="MEM"];
104 -- 105;
105 [label="+"];
105 -- 106;
106 [label="TEMP\nT_FP"];
105 -- 107;
107 [label="CONST\n36"];
101 -- 108;
108 [label="MEM"];
108 -- 109;
109 [label="+"];
109 -- 110;
110 [label="TEMP\nT_FP"];
109 -- 111;
111 [label="CONST\n40"];
100 -- 112;
112 [label="CONST\n0"];
100 -- 113;
113 [label="iftrue\nL_IFTRUE_12"];
100 -- 114;
114 [label="iffalse\nL_IFFALSE_12"];
99 -- 115;
115 [label="SEQ"];
115 -- 116;
116 [label="LABEL\nL_IFTRUE_12"];
115 -- 117;
117 [label="SEQ"];
117 -- 118;
118 [label="SEQ"];
118 -- 119;
119 [label="MOVE"];
119 -- 120;
120 [label="MEM"];
120 -- 121;
121 [label="+"];
121 -- 122;
122 [label="TEMP\nT_FP"];
121 -- 123;
123 [label="CONST\n32"];
119 -- 124;
124 [label="CALL"];
124 -- 125;
125 [label="NAME\nL_Tree::SetLeft"];
124 -- 126;
126 [label="MEM"];
126 -- 127;
127 [label="+"];
127 -- 128;
128 [label="TEMP\nT_FP"];
127 -- 129;
129 [label="CONST\n24"];
124 -- 130;
130 [label="MEM"];
130 -- 131;
131 [label="+"];
131 -- 132;
132 [label="TEMP\nT_THIS"];
131 -- 133;
133 [label="CONST\n20"];
118 -- 134;
134 [label="MOVE"];
134 -- 135;
135 [label="MEM"];
135 -- 136;
136 [label="+"];
136 -- 137;
137 [label="TEMP\nT_FP"];
136 -- 138;
138 [label="CONST\n32"];
134 -- 139;
139 [label="CALL"];
139 -- 140;
140 [label="NAME\nL_Tree::SetHas_Left"];
139 -- 141;
141 [label="MEM"];
141 -- 142;
142 [label="+"];
142 -- 143;
143 [label="TEMP\nT_FP"];
142 -- 144;
144 [label="CONST\n24"];
139 -- 145;
145 [label="CONST\n0"];
117 -- 146;
146 [label="SEQ"];
146 -- 147;
147 [label="JUMP\nL_IFEXIT_12"];
146 -- 148;
148 [label="SEQ"];
148 -- 149;
149 [label="LABEL\nL_IFFALSE_12"];
148 -- 150;
150 [label="SEQ"];
150 -- 151;
151 [label="SEQ"];
151 -- 152;
152 [label="MOVE"];
152 -- 153;
153 [label="MEM"];
153 -- 154;
154 [label="+"];
154 -- 155;
155 [label="TEMP\nT_FP"];
154 -- 156;
156 [label="CONST\n32"];
152 -- 157;
157 [label="CALL"];
157 -- 158;
158 [label="NAME\nL_Tree::SetRight"];
157 -- 159;
159 [label="MEM"];
159 -- 160;
160 [label="+"];
160 -- 161;
161 [label="TEMP\nT_FP"];
160 -- 162;
162 [label="CONST\n24"];
157 -- 163;
163 [label="MEM"];
163 -- 164;
164 [label="+"];
164 -- 165;
165 [label="TEMP\nT_THIS"];
164 -- 166;
166 [label="CONST\n20"];
151 -- 167;
167 [label="MOVE"];
167 -- 168;
168 [label="MEM"];
168 -- 169;
169 [label="+"];
169 -- 170;
170 [label="TEMP\nT_FP"];
169 -- 171;
171 [label="CONST\n32"];
167 -- 172;
172 [label="CALL"];
172 -- 173;
173 [label="NAME\nL_Tree::SetHas_Right"];
172 -- 174;
174 [label="MEM"];
174 -- 175;
175 [label="+"];
175 -- 176;
176 [label="TEMP\nT_FP"];
175 -- 177;
177 [label="CONST\n24"];
172 -- 178;
178 [label="CONST\n0"];
150 -- 179;
179 [label="LABEL\nL_IFEXIT_12"];
72 -- 180;
180 [label="LABEL\nL_IFEXIT_13"];
37 -- 181;
181 [label="LABEL\nL_IFEXIT_14"];
2 -- 182;
182 [label="MOVE"];
182 -- 183;
183 [label="CONST\n1"];
182 -- 184;
184 [label="TEMP\nT_RET"];
}